{
    "cosign.pub": {
        "org.opencontainers.image.title": "cosign.pub",
        "org.opencontainers.image.description": "PEM-formatted public key for validating images and artifacts built by rdnxk and ReDemoNBR",
        "org.opencontainers.image.created": "1970-01-01T00:00:00.000Z"
    },
    "LICENSE.md": {
        "org.opencontainers.image.title": "LICENSE.md",
        "org.opencontainers.image.description": "License for this image",
        "org.opencontainers.image.created": "1970-01-01T00:00:00.000Z"
    },
    "README.md": {
        "org.opencontainers.image.title": "README.md",
        "org.opencontainers.image.description": "Usage of this image",
        "org.opencontainers.image.created": "1970-01-01T00:00:00.000Z"
    },
    "sbom.json": {
        "org.opencontainers.image.title": "sbom.json",
        "org.opencontainers.image.description": "Software bill of materials of this image, in Syft-JSON format",
        "org.opencontainers.image.created": "1970-01-01T00:00:00.000Z"
    },
    "$config": {
        "org.opencontainers.image.created": "1970-01-01T00:00:00.000Z"
    },
    "$manifest": {
        "org.opencontainers.image.title": "Simple Load Balancer",
        "org.opencontainers.image.description": "Simple Load Balancer for... uh... load balancing, right?",
        "org.opencontainers.image.vendor": "rdnxk",
        "org.opencontainers.image.authors": "rdnxk, San 'rdn' Mônico <san@monico.com.br>",
        "org.opencontainers.image.url": "https://hub.docker.com/r/redemonbr/simple-load-balancer",
        "org.opencontainers.image.source": "https://gitlab.com/rdnxk/simple-load-balancer-docker",
        "org.opencontainers.image.documentation": "https://gitlab.com/rdnxk/simple-load-balancer-docker/-/blob/master/README.md",
        "org.opencontainers.image.created": "1970-01-01T00:00:00.000Z"
    }
}
